{
    "data": {
        "user": {
            "login": "hfrick",
            "issueComments": {
                "pageInfo": {
                    "hasNextPage": true,
                    "endCursor": "Y3Vyc29yOnYyOpK5MjAyNS0wMy0wNlQxNToxMzo0NiswMTowMM6hK0vG"
                },
                "totalCount": 850,
                "nodes": [
                    {
                        "createdAt": "2025-03-07T10:51:02Z",
                        "issue": {
                            "number": 342,
                            "comments": {
                                "totalCount": 3
                            },
                            "participants": {
                                "totalCount": 2
                            },
                            "repository": {
                                "nameWithOwner": "tidymodels/censored"
                            }
                        }
                    },
                    {
                        "createdAt": "2025-03-06T14:13:46Z",
                        "issue": {
                            "number": 342,
                            "comments": {
                                "totalCount": 3
                            },
                            "participants": {
                                "totalCount": 2
                            },
                            "repository": {
                                "nameWithOwner": "tidymodels/censored"
                            }
                        }
                    }
                ]
            }
        }
    }
}
