{
    "data": {
        "user": {
            "login": "hfrick",
            "contributionsCollection": {
                "startedAt": "2023-01-01T08:00:00Z",
                "endedAt": "2024-01-01T08:00:00Z",
                "issueContributions": {
                    "pageInfo": {
                        "hasNextPage": true,
                        "endCursor": "Mg"
                    },
                    "totalCount": 133,
                    "nodes": [
                        {
                            "issue": {
                                "createdAt": "2023-12-20T18:14:52Z",
                                "closedAt": "2024-02-14T20:15:14Z",
                                "number": 1039,
                                "comments": {
                                    "totalCount": 1
                                },
                                "participants": {
                                    "totalCount": 1
                                },
                                "repository": {
                                    "nameWithOwner": "tidymodels/parsnip",
                                    "languages": {
                                        "totalCount": 1,
                                        "edges": [
                                            {
                                                "size": 898423,
                                                "node": {
                                                    "name": "R"
                                                }
                                            }
                                        ]
                                    }
                                }
                            }
                        },
                        {
                            "issue": {
                                "createdAt": "2023-12-20T16:57:53Z",
                                "closedAt": "2024-01-15T13:47:02Z",
                                "number": 283,
                                "comments": {
                                    "totalCount": 2
                                },
                                "participants": {
                                    "totalCount": 1
                                },
                                "repository": {
                                    "nameWithOwner": "tidymodels/censored",
                                    "languages": {
                                        "totalCount": 1,
                                        "edges": [
                                            {
                                                "size": 263853,
                                                "node": {
                                                    "name": "R"
                                                }
                                            }
                                        ]
                                    }
                                }
                            }
                        }
                    ]
                }
            }
        }
    }
}
