{
    "data": {
        "user": {
            "login": "gaborcsardi",
            "contributionsCollection": {
                "startedAt": "2022-12-31T08:00:00Z",
                "endedAt": "2024-01-01T08:00:00Z",
                "issueContributions": {
                    "pageInfo": {
                        "hasNextPage": true,
                        "endCursor": "Mg"
                    },
                    "totalCount": 336,
                    "nodes": [
                        {
                            "issue": {
                                "createdAt": "2023-12-30T16:21:39Z",
                                "closedAt": null,
                                "number": 71,
                                "comments": {
                                    "totalCount": 1
                                },
                                "participants": {
                                    "totalCount": 2
                                },
                                "repository": {
                                    "nameWithOwner": "r-lib/lobstr",
                                    "languages": {
                                        "totalCount": 2,
                                        "edges": [
                                            {
                                                "size": 50250,
                                                "node": {
                                                    "name": "R"
                                                }
                                            },
                                            {
                                                "size": 22480,
                                                "node": {
                                                    "name": "C++"
                                                }
                                            }
                                        ]
                                    }
                                }
                            }
                        },
                        {
                            "issue": {
                                "createdAt": "2023-12-11T09:28:06Z",
                                "closedAt": null,
                                "number": 572,
                                "comments": {
                                    "totalCount": 0
                                },
                                "participants": {
                                    "totalCount": 1
                                },
                                "repository": {
                                    "nameWithOwner": "r-lib/pak",
                                    "languages": {
                                        "totalCount": 10,
                                        "edges": [
                                            {
                                                "size": 3182380,
                                                "node": {
                                                    "name": "R"
                                                }
                                            },
                                            {
                                                "size": 9189,
                                                "node": {
                                                    "name": "Makefile"
                                                }
                                            }
                                        ]
                                    }
                                }
                            }
                        }
                    ]
                }
            }
        }
    }
}
